<?xml version="1.0" encoding="utf-8"?>
<!-- Generator: Adobe Illustrator 16.0.0, SVG Export Plug-In . SVG Version: 6.00 Build 0)  -->
<!DOCTYPE svg PUBLIC "-//W3C//DTD SVG 1.1//EN" "http://www.w3.org/Graphics/SVG/1.1/DTD/svg11.dtd">
<svg version="1.1" id="Layer_1" xmlns="http://www.w3.org/2000/svg" xmlns:xlink="http://www.w3.org/1999/xlink" x="0px" y="0px"
	 width="25.605px" height="12.209px" viewBox="0.489 -0.594 25.605 12.209" enable-background="new 0.489 -0.594 25.605 12.209"
	 xml:space="preserve">
<path fill="none" stroke="#39AFB5" stroke-linecap="round" d="M25.543,11.063c-2.447,0-2.447-4.083-4.898-4.083
	c-2.449,0-2.449,4.083-4.897,4.083c-2.45,0-2.45-4.083-4.897-4.083c-2.451,0-2.451,4.083-4.899,4.083
	c-2.449,0-2.453-4.082-4.9-4.082"/>
<path fill="none" stroke="#39AFB5" stroke-linecap="round" d="M25.543,4.084c-2.449,0-2.449-4.084-4.9-4.084
	c-2.449,0-2.449,4.084-4.897,4.084C13.296,4.084,13.295,0,10.847,0c-2.451,0-2.451,4.084-4.9,4.084
	c-2.448,0-2.452-4.083-4.899-4.083"/>
</svg>
